Stats Down South (Park) – Kylie Lay
…
Limitations and Future Work

This k-nearest neighbors model falls flat in certain cases. We can look at the predictions on the test set sorted by highest to lowest residuals in absolute value to get a better understanding of this.

sp_preds <- augment(knn_fit, new_data = sp_test)
sp_preds |>
  mutate(
    abs_resid = abs(AverageRating - .pred)
  ) |>
  arrange(
    desc(abs_resid)
  ) |>
  select(PrimaryTitle, AverageRating, .pred, abs_resid)

# A tibble: 78 × 4
   PrimaryTitle                           AverageRating .pred abs_resid
   <chr>                                          <dbl> <dbl>     <dbl>
 1 South Park: The Streaming Wars                   6.7  8.09     1.39 
 2 The Streaming Wars Part 2                        6.6  7.99     1.39 
 3 The Problem with a Poo                           6.4  7.68     1.28 
 4 White People Renovating Houses                   6.8  8.04     1.24 
 5 #HappyHolograms                                  6.8  7.95     1.15 
 6 Spring Break                                     6.5  7.62     1.12 
 7 Back to the Cold War                             6.6  7.68     1.08 
 8 The End of Serialization as We Know It           7.1  7.96     0.860
 9 The Cissy                                        8.5  7.71     0.787
10 South Park: Post COVID                           7.5  8.28     0.777
# ℹ 68 more rows
…
